{
  "manufacturer": "NovelKeys x Kailh",
  "switch": "Box Royal",
  "color": "purple",
  "actuation": "40g",
  "bottom_out": "70g",
  "type": "tactile",
  "cap": {
    "manufacturer": "NovelKeys"
  }
}
