{
  "title": "HHKB Top Row",
  "height": 5,
  "width": 15,
  "split": "none",
  "stagger": "horizontal",
  "kle": "http://www.keyboard-layout-editor.com/##@@=~%0A%60&=!%0A1&=%2F@%0A2&=%23%0A3&=$%0A4&=%25%0A5&=%5E%0A6&=%2F&%0A7&=*%0A8&=(%0A9&=)%0A0&=%2F_%0A-&=+%0A%2F=&=%7C%0A%5C&=~%0A%60%3B&@_w:1.5%3B&=Tab&=Q&=W&=E&=R&=T&=Y&=U&=I&=O&=P&=%7B%0A%5B&=%7D%0A%5D&_w:1.5%3B&=Backspace%3B&@_w:1.75%3B&=Caps%20Lock&=A&=S&=D&=F&=G&=H&=J&=K&=L&=%2F:%0A%2F%3B&=%22%0A'&_w:2.25%3B&=Enter%3B&@_w:2.25%3B&=Shift&=Z&=X&=C&=V&=B&=N&=M&=%3C%0A,&=%3E%0A.&=%3F%0A%2F%2F&_w:2.75%3B&=Shift%3B&@_w:1.25%3B&=Ctrl&_w:1.25%3B&=Win&_w:1.25%3B&=Alt&_a:7&w:6.25%3B&=&_a:4&w:1.25%3B&=Alt&_w:1.25%3B&=Win&_w:1.25%3B&=Menu&_w:1.25%3B&=Ctrl",
  "description": "This layout uses a top row like the Happy Hacking Keyboard"
}