{
  "title": "JD40",
  "width": 12,
  "height": 4,
  "split": "none",
  "stagger": "horizontal",
  "kle": "http://www.keyboard-layout-editor.com/##@@=Esc&=Q&=W&=E&=R&=T&=Y&=U&=I&=O&=P&=Back%3Cbr%3ESpace%3B&@_w:1.25%3B&=Tab&=A&=S&=D&=F&=G&=H&=J&=K&=L&_w:1.75%3B&=Enter%3B&@_w:1.75%3B&=Shift&=Z&=X&=C&=V&=B&=N&=M&=%3C%0A.&_w:1.25%3B&=Shift&=Fn%3B&@_w:1.25%3B&=Hyper&=Super&=Meta&_a:7&w:6.25%3B&=&_a:4&w:1.25%3B&=Meta&_w:1.25%3B&=Super",
  "description": "The \"Standard\" qwerty layout for a 40% staggered keyboard."
}