{
  "title": "Quefrency 65%",
  "width": 16,
  "height": 5,
  "split": "full",
  "stagger": "horizontal",
  "kle": "http://www.keyboard-layout-editor.com/##@@=~&=!&=%2F@&=%23&=$&=%25&=%5E&_x:1%3B&=%2F&&=*&=(&=)&=%2F_&=+&_w:2%3B&=Backspace&=Home%3B&@_w:1.5%3B&=Tab&=Q&=W&=E&=R&=T&_x:1%3B&=Y&=U&=I&=O&=P&=%7B%0A%5B&=%7D%0A%5D&_w:1.5%3B&=%7C&=End%3B&@_w:1.75%3B&=Caps%20Lock&=A&=S&=D&=F&=G&_x:1%3B&=H&=J&=K&=L&=%2F:%0A%2F%3B&=%22%0A'&_w:2.25%3B&=Enter&=Pg%20Up%3B&@_w:2.25%3B&=Shift&=Z&=X&=C&=V&=B&_x:1%3B&=N&=M&=%3C%0A,&=%3E&=%3F%0A%2F%2F&_w:1.75%3B&=Shift&=Up&=Pg%20Dn%3B&@_w:1.25%3B&=Ctrl&_w:1.25%3B&=Win&_w:1.25%3B&=Alt&_w:2.25%3B&=Space&_w:1.25%3B&=Fn&_x:1&w:2.75%3B&=Space&=Alt&=Ctrl&=Win&=Left&=Down&=Right",
  "description": "A highly configureable split 65% layout from keeb.io"
}