{
  "title": "Sebright Keyboard Layout",
  "width": 12,
  "height": 4,
  "split": "none",
  "stagger": "horizontal",
  "kle": "http://www.keyboard-layout-editor.com/##@_name=Sebright%3B&@_c=%23968e85&a:7&f:4%3B&=Esc&_c=%23cccccc&f:5%3B&=Q&=W&=E&=R&=T&=Z&=U&=I&=O&=P&_c=%23968e85&f:4%3B&=Del%3B&@_c=%23a51b1b&w:1.25%3B&=Tab&_c=%23cccccc&f:5%3B&=A&=S&=D&=F&=G&=H&=J&=K&=L&_c=%23a51b1b&f:4&w:1.75%3B&=Enter%3B&@_c=%23008d52&w:1.75%3B&=Shift&_c=%23cccccc&f:5%3B&=Y&=X&=C&=V&=B&=N&=M&_c=%23aba18b&f:4%3B&=%E2%96%B2&_c=%231a8ab7%3B&=Fn&_c=%23008d52&w:1.25%3B&=Shift%3B&@_x:1.25&c=%23e1ba44&w:1.25%3B&=Ctrl&_w:1.25%3B&=Win&_w:1.25%3B&=Alt&_c=%2394938f&f:3&w:2.75%3B&=&_c=%23aba18b&f:4%3B&=%E2%97%80&=%E2%96%BC&=%E2%96%B6",
  "description": "This layout is from the Sebright 40% keyboard."
}