{
  "title": "Vortex Tab 90",
  "width": 20,
  "height": 6,
  "split": "none",
  "stagger": "horizontal",
  "kle": "http://www.keyboard-layout-editor.com/##@@_y:0.5%3B&=Esc&=F1&=F2&=F3&=F4&=F5&=F6&=F7&=F8&=F9&=F10&=F11&=F12&=Pn&=Ins&=DEL&=Prtsc&=Scrlk&=Pause&=Cal%3B&@=~%0A%60&=!%0A1&=%2F@%0A2&=%23%0A3&=$%0A4&=%25%0A5&=%5E%0A6&=%2F&%0A7&=*%0A8&=(%0A9&=)%0A0&=%2F_%0A-&=+%0A%2F=&_w:2%3B&=Backspace&=Home&=Num%20Lock&=%2F%2F&=*&=-%3B&@_w:1.5%3B&=Tab&=Q&=W&=E&=R&=T&=Y&=U&=I&=O&=P&=%7B%0A%5B&=%7D%0A%5D&_w:1.5%3B&=%7C%0A%5C&=PgUp&=7%0AHome&=8%0A%E2%86%91&=9%0APgUp&_a:6&h:2%3B&=+%3B&@_a:4&w:1.75%3B&=Ctrl&=A&=S&=D&=F&=G&=H&=J&=K&=L&=%2F:%0A%2F%3B&=%22%0A'&_w:2.25%3B&=Enter&=PgDn&=4%0A%E2%86%90&=5&=6%0A%E2%86%92%3B&@_w:1.25%3B&=Shift&=FN&=Z&=X&=C&=V&=B&=N&=M&=%3C%0A,&=%3E%0A.&=%3F%0A%2F%2F&_w:1.75%3B&=Shift&_a:7%3B&=%E2%86%91&=End&_a:4%3B&=1%0AEnd&=2%0A%E2%86%93&=3%0APgDn&_h:2%3B&=Enter%3B&@_w:1.25%3B&=Capslock&_w:1.25%3B&=Win&_w:1.25%3B&=Alt&_a:7&w:6.25%3B&=&_a:4%3B&=Alt&=Ctrl&=FN&_a:7%3B&=%E2%86%90&=%E2%86%93&=%E2%86%92&_a:4%3B&_w:2%3B&=0%0AIns&=.%0ADel",
  "description": "A \"90%\" compacted fullsized keyboard. This keyboard has all the same keys as your standard 104 key layout, but with the extra space removed."
}