{
  "title": "WhiteFox Jack of all Trades",
  "height": 5,
  "width": 16,
  "split": "none",
  "stagger": "horizontal",
  "kle": "http://www.keyboard-layout-editor.com/##@@=Esc&=!&=%2F@&=%23&=$&=%25&=%5E&=%2F&&=*&_a:7%3B&=&=&_a:4%3B&=-&=+&=%7C%0A%5C&=~%0A%60&=Del%3B&@_w:1.5%3B&=Tab&=Q&=W&=E&=R&=T&=Y&=U&=I&=O&=P&=%7B%0A%5B&=%7D%0A%5D&_w:1.5%3B&=Bksp&=PgUp%3B&@_w:1.75%3B&=Caps&=A&=S&=D&=F&=G&=H&=J&=K&=L&=%2F:%0A%2F%3B&=%22%0A'&_w:2.25%3B&=Enter&=PgDn%3B&@_w:2.25%3B&=Shift&=Z&=X&=C&=V&=B&=N&=M&=%3C%0A,&=%3E%0A.&=%3F&_w:2.75%3B&=Shift&=Up%3B&@_w:1.25%3B&=Ctrl&_w:1.25%3B&=FN&_w:1.25%3B&=ALT&_a:7&w:6.25%3B&=&_a:4&w:1.25%3B&=ALT&_w:1.25%3B&=Win&_x:0.5%3B&=Left&=Down&=Right",
  "description": "This layout (via white fox) is intended for people who really like custom keycaps. This 68% board is designed to work best with custom sets"
}